id_credit,credit_amount,monthly_credit_repayment,credit_time,credit_percent
0,21933817,12172854,288,4
1,54982902,14331130,42,4
2,19535725,1302125,85,9
3,5433181,8684920,285,20
4,60168033,2435190,24,16
5,94475154,10462576,206,29
6,37473542,5353892,33,12
7,35260108,3426052,178,3
8,84690050,10468487,272,20
9,30412178,5015619,217,21
10,18042212,3147503,188,12
11,43135348,7325188,219,10
12,79872098,16204027,289,9
13,41178393,858091,91,12
14,16658780,13897605,74,28
15,28625028,9039595,66,21
16,81355132,3975027,334,7
17,42493751,2439964,36,13
18,75579570,859052,81,15
19,23756438,5234470,24,23
20,46167014,3188631,1,26
21,82291531,9453274,33,5
22,14141031,10606643,197,17
23,86297864,5685308,194,7
24,37185594,3681293,245,11
25,17426053,5693728,216,10
26,95299949,6568351,170,23
27,84324100,2572763,82,17
28,50501692,8037886,12,17
29,39202674,4591082,101,5
30,7888303,4637301,20,4
31,29148271,7535966,340,20
32,78327685,6223879,158,17
33,62983712,20347542,77,10
34,85642792,7087088,148,3
35,89981566,12871855,20,21
36,65526663,8590787,155,10
37,54877282,3073618,142,15
38,35885453,12746856,173,6
39,91072137,17089981,355,21
40,83590138,1697181,226,21
41,37280126,6225719,221,8
42,10658003,871975,356,28
43,1865330,12990189,172,16
44,77763967,2278172,146,6
45,71136891,8736914,30,14
46,28942237,1427239,107,19
47,65673969,13770476,210,22
48,35373597,440420,258,10
49,35541385,4916668,317,28
50,88681639,1460840,33,7
51,99474113,8975579,141,1
52,12089453,11679107,130,25
53,76178173,6171873,146,1
54,42889336,8152548,268,4
55,23852613,4876452,132,6
56,28717564,1232812,188,9
57,46348322,6245704,171,14
58,82685776,6246352,27,3
59,20811003,6167454,351,28
60,12759028,3990505,181,29
61,61856956,3991238,59,18
62,21355873,3678815,26,10
63,73751055,3624160,349,12
64,68477378,4713052,157,15
65,23942424,4613192,148,26
66,51035013,5981057,104,13
67,71916657,394351,57,16
68,37143468,17393215,100,3
69,87473046,5419730,146,10
70,46702426,4463222,9,8
71,36922904,9681268,176,29
72,28929715,843335,295,9
73,66770960,7132499,78,4
74,11360055,3241459,160,21
75,32393494,8136967,141,19
76,26010306,12157675,205,23
77,72431664,929383,307,26
78,40428248,11390273,207,15
79,45236227,8150286,164,6
80,7039743,3345242,66,10
81,79586608,6738601,172,21
82,31271088,18371815,131,7
83,35314335,2570327,24,21
84,58579044,13190698,182,21
85,56966290,7520467,275,8
86,22762995,4691755,236,1
87,10138682,16013413,258,28
88,88730957,11978147,225,3
89,96371550,9563886,70,8
90,4741150,4699736,34,6
91,55833412,6961421,345,1
92,84970437,4735868,326,17
93,2916191,3431969,77,1
94,1824666,391919,322,6
95,50225122,2914804,260,14
96,82972928,15532874,52,11
97,58985175,18539368,233,12
98,91756382,3000749,264,4
99,89144197,8813633,49,25
100,50834216,1037079,86,9
101,92518097,2451702,322,3
102,80900958,2127119,221,12
103,40222004,9427681,146,21
104,60202194,11491042,92,18
105,16402613,13252116,291,25
106,2519607,23051486,155,28
107,15090567,20008869,12,9
108,7070826,445811,255,17
109,10996775,10080311,37,12
110,49296178,2904504,70,24
111,83862403,18680365,353,8
112,76125154,14112976,141,21
113,759092,14879713,329,4
114,83904865,3510318,283,8
115,39467641,2866478,39,8
116,18546950,12369653,243,5
117,30608551,21351942,84,6
118,60347364,3093001,128,15
119,60670612,245935,18,15
120,7671275,6344792,213,4
121,31198185,3273281,96,12
122,3156944,3176554,9,23
123,53613459,1872465,286,18
124,81410527,10411065,282,21
125,2790756,10053327,318,16
126,13742031,14307603,218,9
127,39906361,3293520,110,12
128,82356366,20839757,87,28
129,71728269,12647156,103,13
130,31205738,12114920,94,12
131,59834539,3447310,283,6
132,52390080,6047128,315,22
133,79217634,2681958,328,16
134,60064013,2155019,176,6
135,75026914,5439253,208,29
136,71275486,639737,106,29
137,79158734,8310654,19,3
138,89217786,4851209,74,6
139,56165588,14369223,213,5
140,82663131,9984424,0,7
141,68207508,5901158,353,16
142,41795982,5496954,2,6
143,48047689,4438309,313,12
144,48860604,4703190,94,9
145,24349072,13230763,62,21
146,4545632,172420,329,7
147,91912158,3251504,128,2
148,62216911,307449,292,9
149,44640845,2805899,104,13
150,83724900,14926174,325,4
151,34391458,4691280,96,28
152,29446901,11190935,39,28
153,98926592,6473395,313,28
154,59106504,10030707,297,16
155,64737219,2615136,23,7
156,10875977,4042816,323,28
157,59612203,2855955,164,29
158,29108185,4191697,328,24
159,54103134,5257186,320,15
160,72076684,16034675,4,18
161,11081724,5591244,44,16
162,69872003,17632990,39,24
163,96467099,306857,78,27
164,10638497,11759124,343,14
165,83118091,2556797,238,12
166,78779441,19412225,175,7
167,71431691,10129895,202,1
168,1651150,828840,124,6
169,31869773,12307581,262,29
170,356091,11124423,165,22
171,28674263,31434,49,2
172,9373420,7707642,155,5
173,33811528,11852143,344,4
174,42050711,2602974,315,29
175,73598287,10826600,146,20
176,82985522,7230534,43,21
177,53049673,8040811,353,12
178,5600442,11391034,85,12
179,24055350,3135781,73,9
180,92466776,3735639,162,27
181,20686925,17753243,203,13
182,41988704,1009444,268,8
183,28688800,574718,265,29
184,69997604,3489860,172,3
185,16276421,4996439,274,20
186,43093269,1007704,258,21
187,90918139,333611,114,8
188,54600125,1777096,304,17
189,25522617,6531844,127,9
190,26401063,2682636,245,23
191,16000972,2769671,268,5
192,72984071,5946258,297,10
193,22415973,10444234,191,13
194,3171581,4813636,333,4
195,84890594,2874475,339,14
196,43395720,21222165,348,12
197,53934765,5151382,51,28
198,25627656,13413897,22,14
199,85081708,5104372,50,11
200,79424952,23303584,116,25
201,34996132,12619079,357,12
202,48438186,2793422,157,13
203,50315710,19261272,284,23
204,30040105,6250713,289,7
205,9623710,10140970,325,13
206,17132305,3132987,241,22
207,5010070,12270886,14,19
208,18823146,6233388,242,26
209,6420753,1685616,82,12
210,5817502,2450992,71,17
211,69879152,13109992,95,20
212,56467540,11281097,198,20
213,32404680,12812001,292,5
214,75613244,546131,180,9
215,10603728,9122595,94,25
216,82945593,18496393,135,23
217,63576551,3575750,217,25
218,89660539,5743691,159,26
219,76901808,14973693,98,26
220,4444990,7672875,317,29
221,89357469,1808448,120,3
222,23476570,1176226,313,13
223,99147713,11610125,321,11
224,87917093,85167491,189,9
225,28665243,11783415,86,13
226,43987269,2420245,308,15
227,48626706,6727184,230,16
228,8765937,5034274,202,19
229,66184386,1520382,323,12
230,28692125,9033685,64,2
231,19185461,16160336,234,14
232,12339213,8887349,54,23
233,44513250,6978866,282,25
234,95489593,14366350,180,28
235,78820362,233085,159,20
236,1940749,1827983,52,7
237,51565732,9800275,85,19
238,56215601,7174057,322,26
239,83812715,13767345,193,9
240,27653414,6547737,229,14
241,12753528,5710508,130,23
242,14244392,9025701,215,27
243,95916432,3188590,99,7
244,47487447,4986413,194,7
245,519697,21263786,11,24
246,73585096,7973408,174,9
247,75659992,11967321,304,1
248,26931860,10629751,135,7
249,67218457,4423229,39,11
250,70425872,3039392,174,8
251,41530516,790805,274,16
252,77966674,2734746,295,4
253,49494606,8545602,121,14
254,85616642,1487154,272,25
255,87406976,6023611,70,7
256,23111954,929923,216,27
257,42028687,5761712,86,9
258,5617540,5148932,316,28
259,42342067,150918,345,5
260,20684104,10378271,99,6
261,86543166,424072,84,25
262,82622736,7595968,314,20
263,9959044,553825,331,26
264,89059345,2932386,69,18
265,96019139,22625864,313,8
266,57464195,2980956,338,10
267,73065190,3343644,74,19
268,52269691,4095564,123,11
269,68509582,5789425,192,7
270,56234292,13978974,324,9
271,91117648,14193117,161,9
272,5054001,22657872,130,10
273,4213399,2830972,37,1
274,64974742,18743282,347,9
275,82493716,15217459,229,23
276,41151461,4038422,68,24
277,60804501,10660982,63,12
278,61958964,10505053,245,18
279,63038283,15498236,261,2
280,18646054,2922009,91,28
281,83189027,12921850,166,11
282,15743750,12483037,355,18
283,81631115,14151949,103,10
284,5025976,9913356,76,4
285,49122976,21788713,308,29
286,83979221,17589608,194,14
287,24333571,14589672,88,16
288,34297031,5400129,195,19
289,61745662,5212168,47,3
290,27085580,24472268,349,9
291,46571243,5381983,242,25
292,14574281,10757037,22,8
293,19566036,6396800,190,21
294,19803902,15742960,21,17
295,55401594,13321728,88,8
296,40428714,14369017,315,28
297,41318428,14699258,297,18
298,68023259,11905759,233,25
299,57984332,9188796,193,3
300,23879394,2481098,208,20
301,82120432,10053782,39,16
302,9103191,4278141,333,14
303,38443670,6746317,10,20
304,89332648,122451,306,18
305,31008959,4282301,2,15
306,6873755,8493093,76,17
307,30053347,7161031,90,14
308,70762852,7295206,99,25
309,52369113,4085030,321,4
310,68656629,5105393,75,1
311,94776478,2353733,10,7
312,73179310,4843652,223,24
313,65070500,2385759,285,3
314,50789493,13303318,189,19
315,87832284,10335626,198,17
316,3377743,4021800,262,8
317,38901629,2231907,31,11
318,1737800,10187328,159,13
319,3170623,13821907,140,7
320,5483372,77416,267,7
321,70064455,7893492,32,14
322,83787138,1319609,74,13
323,22528645,11191263,110,15
324,79861118,6702488,318,4
325,8006392,11812034,249,21
326,79529497,268172,197,21
327,22942528,562923,62,24
328,53980152,15074217,25,3
329,96691967,721029,248,22
330,59124603,6104843,61,12
331,50784758,796705,152,10
332,72750999,15923376,296,23
333,69575589,12449817,71,17
334,69176794,14658552,39,10
335,97494413,10586252,269,13
336,43889042,2367111,337,19
337,9719808,23345284,345,22
338,82692089,10213334,51,28
339,3069368,3234994,186,14
340,84411500,6379815,141,14
341,98023374,10636260,314,11
342,41847127,14602533,48,28
343,3931486,393305,115,6
344,59636559,7187290,279,29
345,44892430,2524112,101,25
346,79715456,15860164,157,8
347,9716896,14052583,108,16
348,69471160,11816760,48,4
349,69006036,8157505,129,12
350,76301435,7081012,171,23
351,60627949,501928,192,29
352,91518856,14764893,64,10
353,59236173,6062534,52,26
354,23695234,8760603,263,19
355,90933216,15857841,27,10
356,5900141,6025140,346,7
357,45768321,2200589,25,26
358,99100896,12505463,14,16
359,71332121,11378449,310,29
360,90798662,11677679,295,5
361,49446810,16603458,293,22
362,1867697,10024455,87,23
363,7320472,9209134,56,2
364,56223121,2445684,52,28
365,13574584,11249966,342,20
366,96259235,379544,48,23
367,64180940,14018684,57,8
368,71216270,8424325,40,9
369,36810840,15323428,312,21
370,22689425,29180197,318,2
371,55980285,794255,240,21
372,64882714,25826020,292,2
373,69046632,346014,301,15
374,41887797,12387582,172,27
375,68203491,15681429,315,7
376,89695342,484271,228,24
377,34702138,11992713,265,7
378,99728199,18885746,355,24
379,26199542,19638223,138,27
380,59639786,17897408,214,17
381,92322285,13623361,258,27
382,14458370,429912,111,15
383,68060964,8925732,268,18
384,74982550,4887353,288,21
385,38329127,7880087,119,29
386,86473428,1715593,161,19
387,11919176,20396050,180,7
388,46198907,4841882,270,23
389,45305817,1057907,208,1
390,69696511,2116965,344,18
391,53176943,7255023,6,16
392,33891221,2333485,100,28
393,4996010,2080283,29,10
394,36515446,3102733,177,7
395,46876074,1065994,146,4
396,40051252,7421292,70,25
397,48445852,12216092,80,15
398,30775980,8471096,299,3
399,38471856,4151540,186,4
